<?xml version="1.0" encoding="utf-8"?>
<!-- Generator: Adobe Illustrator 16.0.0, SVG Export Plug-In . SVG Version: 6.00 Build 0)  -->
<!DOCTYPE svg PUBLIC "-//W3C//DTD SVG 1.1//EN" "http://www.w3.org/Graphics/SVG/1.1/DTD/svg11.dtd">
<svg version="1.1" xmlns="http://www.w3.org/2000/svg" xmlns:xlink="http://www.w3.org/1999/xlink" x="0px" y="0px" width="1000px"
	 height="1000px" viewBox="0 0 1000 1000" enable-background="new 0 0 1000 1000" xml:space="preserve">
<g id="Layer_2">
	<g>
		<path fill-rule="evenodd" clip-rule="evenodd" fill="#2B2C30" d="M0,840c0,88.366,71.635,160,160,160h680
			c88.366,0,160-71.634,160-160V160c0-88.365-71.634-160-160-160H160C71.635,0,0,71.635,0,160V840z"/>
	</g>
</g>
<g id="Layer_1">
	<path fill-rule="evenodd" clip-rule="evenodd" fill="#FFFFFF" d="M449,349h102c55.229,0,100,44.771,100,100v396
		c0,55.229-44.771,100-100,100H449c-55.229,0-100-44.771-100-100V449C349,393.771,393.771,349,449,349z"/>
	<path fill-rule="evenodd" clip-rule="evenodd" fill="#FFFFFF" d="M423.459,79.067c50.268-0.033,99.488-0.135,145.517-0.446
		c-0.826,62.275,11.863,120.266,35.503,179.323c21.599,59.808,54.148,120.68,45.889,206.057c-100.329,0-200.658,0-300.987,0
		c-7.166-84.992,24.106-145.617,44.062-205.363C415.387,199.649,426.015,141.54,423.459,79.067L423.459,79.067z"/>
	<path fill-rule="evenodd" clip-rule="evenodd" fill="#FFFFFF" d="M422,55h146c4.971,0,9,4.029,9,9s-4.029,9-9,9H422
		c-4.971,0-9-4.029-9-9S417.029,55,422,55z"/>
</g>
</svg>
